simulation/qsim/Azmayesh_Dovvom_Without_En.msim.vcd
$comment
	File created using the following command:
		vcd file Azmayesh_Dovvom_Without_En.msim.vcd -direction
$end
$date
	Tue Jun 02 09:59:56 2026
$end
$version
	ModelSim Version 10.1d
$end
$timescale
	1ps
$end
$scope module Azmayesh_Dovvom_Without_En_vlg_vec_tst $end
$var reg 1 ! D0 $end
$var reg 1 " D1 $end
$var reg 1 # D2 $end
$var reg 1 $ D3 $end
$var reg 1 % S0 $end
$var reg 1 & S1 $end
$var wire 1 ' Y0 $end
$var wire 1 ( sampler $end
$scope module i1 $end
$var wire 1 ) gnd $end
$var wire 1 * vcc $end
$var wire 1 + unknown $end
$var tri1 1 , devclrn $end
$var tri1 1 - devpor $end
$var tri1 1 . devoe $end
$var wire 1 / S0~combout $end
$var wire 1 0 D3~combout $end
$var wire 1 1 D2~combout $end
$var wire 1 2 D0~combout $end
$var wire 1 3 inst6~0_combout $end
$var wire 1 4 S1~combout $end
$var wire 1 5 D1~combout $end
$var wire 1 6 inst6~1_combout $end
$upscope $end
$upscope $end
$enddefinitions $end
#0
$dumpvars
0!
0"
0#
0$
0%
0&
0'
x(
0)
1*
x+
1,
1-
1.
0/
00
01
02
03
04
05
06
$end
#10000
1!
12
0(
13
16
1'
#30000
1"
15
1(
#50000
1#
11
0(
#70000
1$
10
1(
#120000
1%
1/
0(
06
0'
#150000
0!
02
1(
03
#190000
0"
05
0(
#200000
1&
14
1(
13
16
1'
#230000
0#
01
0(
#280000
0$
00
1(
03
06
0'
#300000
0%
0/
0(
#310000
0&
04
1(
#350000
1"
15
0(
16
1'
#360000
1&
14
1(
06
0'
#370000
1$
10
0(
13
#440000
0"
0$
05
00
1(
03
#450000
0&
04
0(
#470000
1!
12
1(
13
16
1'
#480000
1#
1%
11
1/
0(
06
0'
#580000
0!
0#
02
01
1(
03
#600000
0%
0/
0(
#630000
1"
1$
1!
1%
15
10
12
1/
1(
13
#710000
0"
0$
0!
0%
05
00
02
0/
0(
16
03
06
1'
0'
#740000
1&
1#
1"
1%
14
11
15
1/
1(
13
16
1'
#850000
0&
0#
0"
0%
04
01
05
0/
0(
03
06
0'
#910000
1$
1!
1&
1#
1"
1%
10
12
14
11
15
1/
1(
13
16
1'
#960000
0$
0!
0&
0#
0"
0%
00
02
04
01
05
0/
0(
03
06
0'
